…
crossv_mc tries to be smart about memory – rather than repeating the
dataset a bunch of times, it saves the data once and stores the indexes
for each training / testing split using a resample object. This can be
coerced to a dataframe, and can often be treated exactly like a
dataframe. However, it’s not compatible with gam, so we have to convert
each training and testing dataset (and lose that nice memory-saving
stuff in the process) using the code below. It’s worth noting, though,
that if all the models you want to fit use lm, you can skip this.

``` r
cv_df |> pull(train) |> nth(1) |> as_tibble()
```

    ## # A tibble: 176 × 3
    ##    range logratio    id
    ##    <int>    <dbl> <int>
    ##  1   390  -0.0504     1
    ##  2   394  -0.0510     4
    ##  3   396  -0.0599     5
    ##  4   399  -0.0596     7
    ##  5   400  -0.0399     8
    ##  6   402  -0.0294     9
    ##  7   403  -0.0395    10
    ##  8   405  -0.0476    11
    ##  9   406  -0.0604    12
    ## 10   408  -0.0312    13
    ## # ℹ 166 more rows

``` r
cv_df |> pull(test) |> nth(1) |> as_tibble()
```

    ## # A tibble: 45 × 3
    ##    range logratio    id
    ##    <int>    <dbl> <int>
    ##  1   391  -0.0601     2
    ##  2   393  -0.0419     3
    ##  3   397  -0.0284     6
    ##  4   412  -0.0500    16
    ##  5   421  -0.0316    22
    ##  6   424  -0.0884    24
    ##  7   426  -0.0702    25
    ##  8   427  -0.0288    26
    ##  9   436  -0.0573    32
    ## 10   445  -0.0647    38
    ## # ℹ 35 more rows
…
cv_df
```

    ## # A tibble: 100 × 9
    ##    train    test              .id   linear_mod smooth_mod wiggly_mod rmse_linear
    ##    <list>   <list>            <chr> <list>     <list>     <list>           <dbl>
    ##  1 <tibble> <tibble [45 × 3]> 001   <lm>       <gam>      <gam>            0.129
    ##  2 <tibble> <tibble [45 × 3]> 002   <lm>       <gam>      <gam>            0.133
    ##  3 <tibble> <tibble [45 × 3]> 003   <lm>       <gam>      <gam>            0.118
    ##  4 <tibble> <tibble [45 × 3]> 004   <lm>       <gam>      <gam>            0.123
    ##  5 <tibble> <tibble [45 × 3]> 005   <lm>       <gam>      <gam>            0.140
    ##  6 <tibble> <tibble [45 × 3]> 006   <lm>       <gam>      <gam>            0.141
    ##  7 <tibble> <tibble [45 × 3]> 007   <lm>       <gam>      <gam>            0.125
    ##  8 <tibble> <tibble [45 × 3]> 008   <lm>       <gam>      <gam>            0.131
    ##  9 <tibble> <tibble [45 × 3]> 009   <lm>       <gam>      <gam>            0.117
    ## 10 <tibble> <tibble [45 × 3]> 010   <lm>       <gam>      <gam>            0.136
    ## # ℹ 90 more rows
    ## # ℹ 2 more variables: rmse_smooth <dbl>, rmse_wiggly <dbl>
…
